register_bank.vcd
$comment Generated by Amaranth $end
$date 2022-01-21 21:26:41.903048 $end
$timescale 1 ps $end
$scope module bench $end
$scope module top $end
$var wire 4 ! storage_w_addr $end
$var wire 4 " wRegNum $end
$var wire 32 # storage_w_data $end
$var wire 32 $ dataIn $end
$var wire 1 % storage_w_en $end
$var wire 1 & reset $end
$var wire 1 ' writeEnable $end
$var wire 4 ( storage_r_addr $end
$var wire 4 ) regNum0 $end
$var wire 32 * dataOut0 $end
$var wire 32 + storage_r_data $end
$var wire 4 , storage_r_addr$1 $end
$var wire 4 - regNum1 $end
$var wire 32 . dataOut1 $end
$var wire 32 / storage_r_data$1 $end
$scope module r0_port $end
$var wire 4 ( storage_r_addr $end
$var wire 32 + storage_r_data $end
$var wire 1 0 clk $end
$var wire 1 1 rst $end
$var wire 32 2 memory(0) $end
$var wire 32 3 memory(1) $end
$var wire 32 4 memory(2) $end
$var wire 32 5 memory(3) $end
$var wire 32 6 memory(4) $end
$var wire 32 7 memory(5) $end
$var wire 32 8 memory(6) $end
$var wire 32 9 memory(7) $end
$var wire 32 : memory(8) $end
$var wire 32 ; memory(9) $end
$var wire 32 < memory(10) $end
$var wire 32 = memory(11) $end
$var wire 32 > memory(12) $end
$var wire 32 ? memory(13) $end
$var wire 32 @ memory(14) $end
$var wire 32 A memory(15) $end
$var wire 4 B latch_addr $end
$upscope $end
$scope module r1_port $end
$var wire 4 , storage_r_addr $end
$var wire 32 / storage_r_data $end
$var wire 1 0 clk $end
$var wire 1 1 rst $end
$var wire 32 2 memory(0) $end
$var wire 32 3 memory(1) $end
$var wire 32 4 memory(2) $end
$var wire 32 5 memory(3) $end
$var wire 32 6 memory(4) $end
$var wire 32 7 memory(5) $end
$var wire 32 8 memory(6) $end
$var wire 32 9 memory(7) $end
$var wire 32 : memory(8) $end
$var wire 32 ; memory(9) $end
$var wire 32 < memory(10) $end
$var wire 32 = memory(11) $end
$var wire 32 > memory(12) $end
$var wire 32 ? memory(13) $end
$var wire 32 @ memory(14) $end
$var wire 32 A memory(15) $end
$var wire 4 C latch_addr $end
$upscope $end
$scope module w_port $end
$var wire 4 ! storage_w_addr $end
$var wire 32 # storage_w_data $end
$var wire 1 % storage_w_en $end
$var wire 1 0 clk $end
$var wire 1 1 rst $end
$var wire 32 2 memory(0) $end
$var wire 32 3 memory(1) $end
$var wire 32 4 memory(2) $end
$var wire 32 5 memory(3) $end
$var wire 32 6 memory(4) $end
$var wire 32 7 memory(5) $end
$var wire 32 8 memory(6) $end
$var wire 32 9 memory(7) $end
$var wire 32 : memory(8) $end
$var wire 32 ; memory(9) $end
$var wire 32 < memory(10) $end
$var wire 32 = memory(11) $end
$var wire 32 > memory(12) $end
$var wire 32 ? memory(13) $end
$var wire 32 @ memory(14) $end
$var wire 32 A memory(15) $end
$upscope $end
$upscope $end
$upscope $end
$enddefinitions $end
#0
$dumpvars
b0 !
b0 "
b0 #
b0 $
0%
0&
0'
b0 (
b0 )
b0 *
b0 +
b0 ,
b0 -
b0 .
b0 /
00
01
b0 2
b0 3
b0 4
b0 5
b0 6
b0 7
b0 8
b0 9
b0 :
b0 ;
b0 <
b0 =
b0 >
b0 ?
b0 @
b0 A
b0 B
b0 C
$end
#500000
1&
10
#1000000
00
#1500000
0&
10
#2000000
00
#2500000
1'
b1101101101111010100111001010 #
10
b1101101101111010100111001010 $
#3000000
00
#3500000
0'
b11110010010010000101011000110101 #
10
b11110010010010000101011000110101 $
#4000000
00
#4500000
1'
1%
b1 !
b10111010001100011010011110111011 $
b10111010001100011010011110111011 #
10
b1 "
#5000000
00
#5500000
0'
0%
b10111010001100011010011110111011 3
b1000101110011100101100001000100 $
b1000101110011100101100001000100 #
10
#6000000
00
#6500000
1'
1%
b10 !
b1100001000111001110111101100101 $
b1100001000111001110111101100101 #
10
b10 "
#7000000
00
#7500000
0'
0%
b10011110111000110001000010011010 $
b10011110111000110001000010011010 #
10
b1100001000111001110111101100101 4
#8000000
00
#8500000
1'
1%
b11 !
b11100111010100010100001000111000 $
b11100111010100010100001000111000 #
10
b11 "
#9000000
00
#9500000
0'
0%
b11000101011101011110111000111 $
b11100111010100010100001000111000 5
b11000101011101011110111000111 #
10
#10000000
00
#10500000
1'
1%
b100 !
b1011011000111110101010111011111 $
b1011011000111110101010111011111 #
10
b100 "
#11000000
00
#11500000
0'
b1011011000111110101010111011111 6
0%
b10100100111000001010101000100000 $
b10100100111000001010101000100000 #
10
#12000000
00
#12500000
1'
1%
b101 !
b10011100011011100101111001101101 $
b10011100011011100101111001101101 #
10
b101 "
#13000000
00
#13500000
0'
0%
b1100011100100011010000110010010 $
b1100011100100011010000110010010 #
10
b10011100011011100101111001101101 7
#14000000
00
#14500000
1'
1%
b110 !
b10000100000011010010100001000100 $
b10000100000011010010100001000100 #
10
b110 "
#15000000
00
#15500000
0'
0%
b1111011111100101101011110111011 $
b1111011111100101101011110111011 #
10
b10000100000011010010100001000100 8
#16000000
00
#16500000
1'
1%
b111 !
b11101100001111111100011011000010 $
b11101100001111111100011011000010 #
10
b111 "
#17000000
00
#17500000
0'
b11101100001111111100011011000010 9
0%
b10011110000000011100100111101 $
b10011110000000011100100111101 #
10
#18000000
00
#18500000
1'
1%
b1000 !
b11100001111111011000111100101110 $
b11100001111111011000111100101110 #
10
b1000 "
#19000000
00
#19500000
0'
0%
b11110000000100111000011010001 $
b11110000000100111000011010001 #
b11100001111111011000111100101110 :
10
#20000000
00
#20500000
1'
1%
b1001 !
b1110010001000100000101100101010 $
b1110010001000100000101100101010 #
10
b1001 "
#21000000
00
#21500000
0'
0%
b1110010001000100000101100101010 ;
b10001101110111011111010011010101 $
b10001101110111011111010011010101 #
10
#22000000
00
#22500000
1'
1%
b1010 !
b1101110101100010101110110000011 $
b1101110101100010101110110000011 #
10
b1010 "
#23000000
00
#23500000
0'
0%
b10010001010011101010001001111100 $
b10010001010011101010001001111100 #
10
b1101110101100010101110110000011 <
#24000000
00
#24500000
1'
1%
b1011 !
b111011001001001010100111111 $
b111011001001001010100111111 #
10
b1011 "
#25000000
00
#25500000
0'
0%
b11111000100110110110101011000000 $
b111011001001001010100111111 =
b11111000100110110110101011000000 #
10
#26000000
00
#26500000
1'
1%
b1100 !
b1001011111110111001110011111011 $
b1001011111110111001110011111011 #
10
b1100 "
#27000000
00
#27500000
0'
b1001011111110111001110011111011 >
0%
b10110100000001000110001100000100 $
b10110100000001000110001100000100 #
10
#28000000
00
#28500000
1'
1%
b1101 !
b100101110000010101110000001010 $
b100101110000010101110000001010 #
10
b1101 "
#29000000
00
#29500000
0'
0%
b11011010001111101010001111110101 $
b11011010001111101010001111110101 #
10
b100101110000010101110000001010 ?
#30000000
00
#30500000
1'
1%
b1110 !
b10000001111011110100000011110 $
b10000001111011110100000011110 #
10
b1110 "
#31000000
00
#31500000
0'
0%
b11101111110000100001011111100001 $
b11101111110000100001011111100001 #
b10000001111011110100000011110 @
10
#32000000
00
#32500000
1'
1%
b1111 !
b10110000101110100000011110001 $
b10110000101110100000011110001 #
10
b1111 "
#33000000
00
#33500000
0'
b10110000101110100000011110001 A
0%
b11101001111010001011111100001110 $
b11101001111010001011111100001110 #
10
#34000000
00
#34500000
10
#35000000
00
#35500000
10
#36000000
00
#36500000
b1 (
10
b1 )
#37000000
00
#37500000
b10111010001100011010011110111011 +
10
b1 B
b10111010001100011010011110111011 *
#38000000
00
#38500000
b10 (
10
b10 )
#39000000
00
#39500000
b1100001000111001110111101100101 +
10
b10 B
b1100001000111001110111101100101 *
#40000000
00
#40500000
b11 (
10
b11 )
#41000000
00
#41500000
b11100111010100010100001000111000 +
10
b11 B
b11100111010100010100001000111000 *
#42000000
00
#42500000
b100 (
10
b100 )
#43000000
00
#43500000
b1011011000111110101010111011111 +
10
b100 B
b1011011000111110101010111011111 *
#44000000
00
#44500000
b101 (
10
b101 )
#45000000
00
#45500000
b10011100011011100101111001101101 +
10
b101 B
b10011100011011100101111001101101 *
#46000000
00
#46500000
b110 (
10
b110 )
#47000000
00
#47500000
b10000100000011010010100001000100 +
10
b110 B
b10000100000011010010100001000100 *
#48000000
00
#48500000
b111 (
10
b111 )
#49000000
00
#49500000
b11101100001111111100011011000010 +
10
b111 B
b11101100001111111100011011000010 *
#50000000
00
#50500000
b1000 (
10
b1000 )
#51000000
00
#51500000
b11100001111111011000111100101110 +
10
b1000 B
b11100001111111011000111100101110 *
#52000000
00
#52500000
b1001 (
10
b1001 )
#53000000
00
#53500000
b1110010001000100000101100101010 +
10
b1001 B
b1110010001000100000101100101010 *
#54000000
00
#54500000
b1010 (
10
b1010 )
#55000000
00
#55500000
b1101110101100010101110110000011 +
10
b1010 B
b1101110101100010101110110000011 *
#56000000
00
#56500000
b1011 (
10
b1011 )
#57000000
00
#57500000
b111011001001001010100111111 +
10
b1011 B
b111011001001001010100111111 *
#58000000
00
#58500000
b1100 (
10
b1100 )
#59000000
00
#59500000
b1001011111110111001110011111011 +
10
b1100 B
b1001011111110111001110011111011 *
#60000000
00
#60500000
b1101 (
10
b1101 )
#61000000
00
#61500000
b100101110000010101110000001010 +
10
b1101 B
b100101110000010101110000001010 *
#62000000
00
#62500000
b1110 (
10
b1110 )
#63000000
00
#63500000
b10000001111011110100000011110 +
10
b1110 B
b10000001111011110100000011110 *
#64000000
00
#64500000
b1111 (
10
b1111 )
#65000000
00
#65500000
b10110000101110100000011110001 +
10
b1111 B
b10110000101110100000011110001 *
#66000000
00
#66500000
10
#67000000
00
#67500000
10
#68000000
00
#68500000
b1 -
b1 ,
10
#69000000
00
#69500000
b10111010001100011010011110111011 .
10
b1 C
b10111010001100011010011110111011 /
#70000000
00
#70500000
b10 -
b10 ,
10
#71000000
00
#71500000
b1100001000111001110111101100101 .
10
b10 C
b1100001000111001110111101100101 /
#72000000
00
#72500000
b11 -
b11 ,
10
#73000000
00
#73500000
b11100111010100010100001000111000 .
10
b11 C
b11100111010100010100001000111000 /
#74000000
00
#74500000
b100 -
b100 ,
10
#75000000
00
#75500000
b1011011000111110101010111011111 .
10
b100 C
b1011011000111110101010111011111 /
#76000000
00
#76500000
b101 -
b101 ,
10
#77000000
00
#77500000
b10011100011011100101111001101101 .
10
b101 C
b10011100011011100101111001101101 /
#78000000
00
#78500000
b110 -
b110 ,
10
#79000000
00
#79500000
b10000100000011010010100001000100 .
10
b110 C
b10000100000011010010100001000100 /
#80000000
00
#80500000
b111 -
b111 ,
10
#81000000
00
#81500000
b11101100001111111100011011000010 .
10
b111 C
b11101100001111111100011011000010 /
#82000000
00
#82500000
b1000 -
b1000 ,
10
#83000000
00
#83500000
b11100001111111011000111100101110 .
10
b1000 C
b11100001111111011000111100101110 /
#84000000
00
#84500000
b1001 -
b1001 ,
10
#85000000
00
#85500000
b1110010001000100000101100101010 .
10
b1001 C
b1110010001000100000101100101010 /
#86000000
00
#86500000
b1010 -
b1010 ,
10
#87000000
00
#87500000
b1101110101100010101110110000011 .
10
b1010 C
b1101110101100010101110110000011 /
#88000000
00
#88500000
b1011 -
b1011 ,
10
#89000000
00
#89500000
b111011001001001010100111111 .
10
b1011 C
b111011001001001010100111111 /
#90000000
00
#90500000
b1100 -
b1100 ,
10
#91000000
00
#91500000
b1001011111110111001110011111011 .
10
b1100 C
b1001011111110111001110011111011 /
#92000000
00
#92500000
b1101 -
b1101 ,
10
#93000000
00
#93500000
b100101110000010101110000001010 .
10
b1101 C
b100101110000010101110000001010 /
#94000000
00
#94500000
b1110 -
b1110 ,
10
#95000000
00
#95500000
b10000001111011110100000011110 .
10
b1110 C
b10000001111011110100000011110 /
#96000000
00
#96500000
b1111 -
b1111 ,
10
#97000000
00
#97500000
b10110000101110100000011110001 .
10
b1111 C
b10110000101110100000011110001 /
